bench_wave.vcd
$date
	Tue Jun 24 01:10:08 2025
$end
$version
	Icarus Verilog
$end
$timescale
	1s
$end
$scope module tb_top $end
$var wire 8 ! ram_ifmd1_0 [7:0] $end
$var wire 8 " ram_ifmd1_1 [7:0] $end
$var wire 8 # ram_ifmd1_2 [7:0] $end
$var wire 8 $ ram_ifmd1_3 [7:0] $end
$var wire 8 % ram_ifmd1_4 [7:0] $end
$var wire 8 & ram_ifmd1_5 [7:0] $end
$var wire 8 ' ram_ifmd1_60 [7:0] $end
$var wire 8 ( ram_ifmd1_61 [7:0] $end
$var wire 8 ) ram_ifmd1_62 [7:0] $end
$var wire 8 * ram_ifmd1_63 [7:0] $end
$var wire 8 + ram_ifmd2_0 [7:0] $end
$var wire 8 , ram_ifmd2_1 [7:0] $end
$var wire 8 - ram_ifmd2_2 [7:0] $end
$var wire 8 . ram_ifmd2_3 [7:0] $end
$var wire 8 / ram_ifmd2_4 [7:0] $end
$var wire 8 0 ram_ifmd2_5 [7:0] $end
$var wire 8 1 ram_ifmd2_60 [7:0] $end
$var wire 8 2 ram_ifmd2_61 [7:0] $end
$var wire 8 3 ram_ifmd2_62 [7:0] $end
$var wire 8 4 ram_ifmd2_63 [7:0] $end
$var wire 8 5 ram_kw1_0 [7:0] $end
$var wire 8 6 ram_kw1_1 [7:0] $end
$var wire 8 7 ram_kw1_23 [7:0] $end
$var wire 8 8 ram_kw1_24 [7:0] $end
$var wire 8 9 ram_kw1_7 [7:0] $end
$var wire 8 : ram_kw1_8 [7:0] $end
$var wire 8 ; ram_kw1_9 [7:0] $end
$var wire 8 < ram_kw2_0 [7:0] $end
$var wire 8 = ram_kw2_1 [7:0] $end
$var wire 8 > ram_kw2_23 [7:0] $end
$var wire 8 ? ram_kw2_24 [7:0] $end
$var wire 8 @ ram_kw2_7 [7:0] $end
$var wire 8 A ram_kw2_8 [7:0] $end
$var wire 8 B ram_kw2_9 [7:0] $end
$var wire 8 C ram_kw3_0 [7:0] $end
$var wire 8 D ram_kw3_1 [7:0] $end
$var wire 8 E ram_kw3_23 [7:0] $end
$var wire 8 F ram_kw3_24 [7:0] $end
$var wire 8 G ram_kw3_7 [7:0] $end
$var wire 8 H ram_kw3_8 [7:0] $end
$var wire 8 I ram_kw3_9 [7:0] $end
$var wire 8 J ram_kw4_0 [7:0] $end
$var wire 8 K ram_kw4_1 [7:0] $end
$var wire 8 L ram_kw4_23 [7:0] $end
$var wire 8 M ram_kw4_24 [7:0] $end
$var wire 8 N ram_kw4_7 [7:0] $end
$var wire 8 O ram_kw4_8 [7:0] $end
$var wire 8 P ram_kw4_9 [7:0] $end
$var wire 16 Q ram_ofmd1_0 [15:0] $end
$var wire 16 R ram_ofmd1_1 [15:0] $end
$var wire 16 S ram_ofmd1_14 [15:0] $end
$var wire 16 T ram_ofmd1_15 [15:0] $end
$var wire 16 U ram_ofmd1_16 [15:0] $end
$var wire 16 V ram_ofmd1_2 [15:0] $end
$var wire 16 W ram_ofmd1_34 [15:0] $end
$var wire 16 X ram_ofmd1_35 [15:0] $end
$var wire 1 Y out_st $end
$var wire 16 Z dout_ofmd2 [15:0] $end
$var wire 16 [ dout_ofmd1 [15:0] $end
$var reg 1 \ clk $end
$var reg 8 ] din [7:0] $end
$var reg 1 ^ in_st_ifmd $end
$var reg 1 _ in_st_kw $end
$var reg 1 ` kw_is_5_5 $end
$var reg 1 a rst $end
$var integer 32 b i [31:0] $end
$scope module dut $end
$var wire 1 \ clk $end
$var wire 8 c din [7:0] $end
$var wire 1 ^ in_st_ifmd $end
$var wire 1 _ in_st_kw $end
$var wire 1 ` kw_is_5_5 $end
$var wire 1 a rst $end
$var wire 6 d wr_addr [5:0] $end
$var wire 1 e rd_enable $end
$var wire 1 Y out_st $end
$var wire 1 f ofmd_wr_addr_en $end
$var wire 6 g ofmd_wr_addr [5:0] $end
$var wire 1 h ofmd_rd_en $end
$var wire 1 i ofmd_rd_done $end
$var wire 6 j ofmd_rd_addr [5:0] $end
$var wire 1 k ofmd_ram_en $end
$var wire 20 l mult_out_4 [19:0] $end
$var wire 20 m mult_out_3 [19:0] $end
$var wire 20 n mult_out_2 [19:0] $end
$var wire 20 o mult_out_1 [19:0] $end
$var wire 1 p kw_wr_state $end
$var wire 1 q kw_wr_done $end
$var wire 1 r kw_wr4 $end
$var wire 1 s kw_wr3 $end
$var wire 1 t kw_wr2 $end
$var wire 1 u kw_wr1 $end
$var wire 5 v kw_rd_addr [4:0] $end
$var wire 1 w kw_ram4_en $end
$var wire 1 x kw_ram3_en $end
$var wire 1 y kw_ram2_en $end
$var wire 1 z kw_ram1_en $end
$var wire 8 { kw4_dout [7:0] $end
$var wire 8 | kw3_dout [7:0] $end
$var wire 8 } kw2_dout [7:0] $end
$var wire 8 ~ kw1_dout [7:0] $end
$var wire 1 !" is_5x5 $end
$var wire 1 "" ifmd_wr_state $end
$var wire 1 #" ifmd_wr_done $end
$var wire 1 $" ifmd_wr2 $end
$var wire 1 %" ifmd_wr1 $end
$var wire 1 &" ifmd_rd_done $end
$var wire 6 '" ifmd_rd_addr [5:0] $end
$var wire 1 (" ifmd_ram2_en $end
$var wire 1 )" ifmd_ram1_en $end
$var wire 8 *" ifmd2_dout [7:0] $end
$var wire 8 +" ifmd1_dout [7:0] $end
$var wire 16 ," dout_ofmd2 [15:0] $end
$var wire 16 -" dout_ofmd1 [15:0] $end
$var wire 1 ." delay_calc_ing $end
$var wire 1 /" delay3_calc_ing $end
$var wire 1 0" delay2_every $end
$var wire 1 1" delay2_calc_ing $end
$var wire 21 2" add_data2_21bits [20:0] $end
$var wire 21 3" add_data1_21bits [20:0] $end
$var wire 20 4" accu_we_need_data4 [19:0] $end
$var wire 20 5" accu_we_need_data3 [19:0] $end
$var wire 20 6" accu_we_need_data2 [19:0] $end
$var wire 20 7" accu_we_need_data1 [19:0] $end
$var wire 20 8" acc_out_4 [19:0] $end
$var wire 20 9" acc_out_3 [19:0] $end
$var wire 20 :" acc_out_2 [19:0] $end
$var wire 20 ;" acc_out_1 [19:0] $end
$scope module acc_1 $end
$var wire 1 \ clk $end
$var wire 1 a rst $end
$var wire 1 0" load_new_value $end
$var wire 1 ." en $end
$var wire 20 <" data_in [19:0] $end
$var reg 20 =" acc_out [19:0] $end
$upscope $end
$scope module acc_2 $end
$var wire 1 \ clk $end
$var wire 1 a rst $end
$var wire 1 0" load_new_value $end
$var wire 1 ." en $end
$var wire 20 >" data_in [19:0] $end
$var reg 20 ?" acc_out [19:0] $end
$upscope $end
$scope module acc_3 $end
$var wire 1 \ clk $end
$var wire 1 a rst $end
$var wire 1 0" load_new_value $end
$var wire 1 ." en $end
$var wire 20 @" data_in [19:0] $end
$var reg 20 A" acc_out [19:0] $end
$upscope $end
$scope module acc_4 $end
$var wire 1 \ clk $end
$var wire 1 a rst $end
$var wire 1 0" load_new_value $end
$var wire 1 ." en $end
$var wire 20 B" data_in [19:0] $end
$var reg 20 C" acc_out [19:0] $end
$upscope $end
$scope module accu_result_reg1 $end
$var wire 20 D" acc_out [19:0] $end
$var wire 1 \ clk $end
$var wire 1 a rst $end
$var wire 1 0" load_new_value $end
$var reg 20 E" data [19:0] $end
$upscope $end
$scope module accu_result_reg2 $end
$var wire 20 F" acc_out [19:0] $end
$var wire 1 \ clk $end
$var wire 1 a rst $end
$var wire 1 0" load_new_value $end
$var reg 20 G" data [19:0] $end
$upscope $end
$scope module accu_result_reg3 $end
$var wire 20 H" acc_out [19:0] $end
$var wire 1 \ clk $end
$var wire 1 a rst $end
$var wire 1 0" load_new_value $end
$var reg 20 I" data [19:0] $end
$upscope $end
$scope module accu_result_reg4 $end
$var wire 20 J" acc_out [19:0] $end
$var wire 1 \ clk $end
$var wire 1 a rst $end
$var wire 1 0" load_new_value $end
$var reg 20 K" data [19:0] $end
$upscope $end
$scope module adder_1 $end
$var wire 21 L" a [20:0] $end
$var wire 21 M" b [20:0] $end
$var wire 21 N" out [20:0] $end
$var parameter 32 O" WIDTH $end
$upscope $end
$scope module adder_2 $end
$var wire 21 P" a [20:0] $end
$var wire 21 Q" b [20:0] $end
$var wire 21 R" out [20:0] $end
$var parameter 32 S" WIDTH $end
$upscope $end
$scope module fsm $end
$var wire 1 \ clk $end
$var wire 8 T" din [7:0] $end
$var wire 1 )" ifmd_ram1_en $end
$var wire 1 (" ifmd_ram2_en $end
$var wire 1 "" ifmd_wr_state $end
$var wire 1 ^ in_st_ifmd $end
$var wire 1 _ in_st_kw $end
$var wire 1 ` kw_is_5_5 $end
$var wire 1 z kw_ram1_en $end
$var wire 1 y kw_ram2_en $end
$var wire 1 x kw_ram3_en $end
$var wire 1 w kw_ram4_en $end
$var wire 1 p kw_wr_state $end
$var wire 1 k ofmd_ram_en $end
$var wire 1 f ofmd_wr_addr_en $end
$var wire 1 a rst $end
$var wire 1 e rd_enable $end
$var wire 1 h ofmd_rd_en $end
$var wire 1 i ofmd_rd_done $end
$var wire 1 q kw_wr_done $end
$var wire 1 r kw_wr4 $end
$var wire 1 s kw_wr3 $end
$var wire 1 t kw_wr2 $end
$var wire 1 u kw_wr1 $end
$var wire 1 #" ifmd_wr_done $end
$var wire 1 $" ifmd_wr2 $end
$var wire 1 %" ifmd_wr1 $end
$var wire 1 U" calc_ing $end
$var wire 1 &" calc_done $end
$var parameter 32 V" DONE $end
$var parameter 32 W" IDLE $end
$var parameter 32 X" IFMD_WAIT_WR2 $end
$var parameter 32 Y" IFMD_WR1 $end
$var parameter 32 Z" IFMD_WR2 $end
$var parameter 32 [" KW_WR1 $end
$var parameter 32 \" KW_WR2 $end
$var parameter 32 ]" KW_WR3 $end
$var parameter 32 ^" KW_WR4 $end
$var parameter 32 _" S_CALC $end
$var parameter 32 `" S_POST_CALC_1 $end
$var parameter 32 a" S_POST_CALC_2 $end
$var parameter 32 b" S_POST_CALC_3 $end
$var parameter 32 c" S_READ_RESULT $end
$var parameter 32 d" WAIT_KW_WR1 $end
$var parameter 32 e" WAIT_KW_WR2 $end
$var parameter 32 f" WAIT_KW_WR3 $end
$var parameter 32 g" WAIT_KW_WR4 $end
$var reg 1 1" delay2_calc_ing $end
$var reg 1 /" delay3_calc_ing $end
$var reg 1 ." delay_calc_ing $end
$var reg 1 !" is_5x5 $end
$var reg 5 h" next_state [4:0] $end
$var reg 1 Y out_st $end
$var reg 5 i" state [4:0] $end
$upscope $end
$scope module ifmd_rd_addr_gener $end
$var wire 1 \ clk $end
$var wire 1 e enable $end
$var wire 1 !" is_5x5 $end
$var wire 1 a rst $end
$var wire 6 j" pulse_c_offset [5:0] $end
$var wire 1 k" pulse_c $end
$var wire 6 l" pulse_b_offset [5:0] $end
$var wire 1 m" pulse_b $end
$var wire 6 n" pulse_a_offset [5:0] $end
$var wire 1 o" pulse_a $end
$var wire 1 &" ifmd_rd_done $end
$var wire 7 p" cnt_c_max [6:0] $end
$var wire 5 q" cnt_b_max [4:0] $end
$var wire 3 r" cnt_a_max [2:0] $end
$var wire 9 s" TOTAL_COUNT [8:0] $end
$var parameter 32 t" IFMD_H $end
$var parameter 32 u" IFMD_W $end
$var parameter 32 v" KW_H_3 $end
$var parameter 32 w" KW_H_5 $end
$var parameter 32 x" KW_W_3 $end
$var parameter 32 y" KW_W_5 $end
$var parameter 34 z" OFMD_H_3 $end
$var parameter 34 {" OFMD_H_5 $end
$var parameter 34 |" OFMD_W_3 $end
$var parameter 34 }" OFMD_W_5 $end
$var parameter 132 ~" TOTAL_COUNT_3x3 $end
$var parameter 132 !# TOTAL_COUNT_5x5 $end
$var reg 3 "# cnt_a [2:0] $end
$var reg 5 ## cnt_b [4:0] $end
$var reg 7 $# cnt_c [6:0] $end
$var reg 9 %# count [8:0] $end
$var reg 1 0" delay2_b $end
$var reg 1 &# delay_b $end
$var reg 6 '# ifmd_rd_addr [5:0] $end
$upscope $end
$scope module multer_1 $end
$var wire 8 (# b [7:0] $end
$var wire 8 )# a [7:0] $end
$var parameter 33 *# EXT_WIDTH $end
$var parameter 32 +# OUT_WIDTH $end
$var parameter 32 ,# WIDTH $end
$var reg 20 -# out [19:0] $end
$upscope $end
$scope module multer_2 $end
$var wire 8 .# b [7:0] $end
$var wire 8 /# a [7:0] $end
$var parameter 33 0# EXT_WIDTH $end
$var parameter 32 1# OUT_WIDTH $end
$var parameter 32 2# WIDTH $end
$var reg 20 3# out [19:0] $end
$upscope $end
$scope module multer_3 $end
$var wire 8 4# b [7:0] $end
$var wire 8 5# a [7:0] $end
$var parameter 33 6# EXT_WIDTH $end
$var parameter 32 7# OUT_WIDTH $end
$var parameter 32 8# WIDTH $end
$var reg 20 9# out [19:0] $end
$upscope $end
$scope module multer_4 $end
$var wire 8 :# b [7:0] $end
$var wire 8 ;# a [7:0] $end
$var parameter 33 <# EXT_WIDTH $end
$var parameter 32 =# OUT_WIDTH $end
$var parameter 32 ># WIDTH $end
$var reg 20 ?# out [19:0] $end
$upscope $end
$scope module ofmd_rd_addr_cnter $end
$var wire 1 \ clk $end
$var wire 1 h en $end
$var wire 1 !" is_5x5 $end
$var wire 1 a rst $end
$var wire 6 @# max_addr [5:0] $end
$var wire 1 i done_rd $end
$var parameter 32 A# OFMD1_SIZE $end
$var parameter 32 B# OFMD2_SIZE $end
$var parameter 32 C# WIDTH $end
$var reg 6 D# addr_cnt [5:0] $end
$upscope $end
$scope module ofmd_wr_addr_cnter $end
$var wire 1 \ clk $end
$var wire 1 0" delay2_every $end
$var wire 1 f en $end
$var wire 1 a rst $end
$var parameter 32 E# ADDR_WIDTH $end
$var reg 6 F# addr_cnt [5:0] $end
$var reg 6 G# addr_cnt_prev [5:0] $end
$upscope $end
$scope module ram_ifmd1 $end
$var wire 6 H# address_rd [5:0] $end
$var wire 1 \ clk $end
$var wire 8 I# din [7:0] $end
$var wire 1 )" en $end
$var wire 1 %" wr $end
$var wire 6 J# address_wr [5:0] $end
$var parameter 32 K# ADDR_WIDTH $end
$var parameter 32 L# DATA_WIDTH $end
$var parameter 32 M# WORDS $end
$var reg 8 N# dout [7:0] $end
$upscope $end
$scope module ram_ifmd2 $end
$var wire 6 O# address_rd [5:0] $end
$var wire 1 \ clk $end
$var wire 8 P# din [7:0] $end
$var wire 1 (" en $end
$var wire 1 $" wr $end
$var wire 6 Q# address_wr [5:0] $end
$var parameter 32 R# ADDR_WIDTH $end
$var parameter 32 S# DATA_WIDTH $end
$var parameter 32 T# WORDS $end
$var reg 8 U# dout [7:0] $end
$upscope $end
$scope module ram_kw1 $end
$var wire 5 V# address_rd [4:0] $end
$var wire 5 W# address_wr [4:0] $end
$var wire 1 \ clk $end
$var wire 8 X# din [7:0] $end
$var wire 1 z en $end
$var wire 1 u wr $end
$var parameter 32 Y# ADDR_WIDTH $end
$var parameter 32 Z# DATA_WIDTH $end
$var parameter 32 [# WORDS $end
$var reg 8 \# dout [7:0] $end
$upscope $end
$scope module ram_kw2 $end
$var wire 5 ]# address_rd [4:0] $end
$var wire 5 ^# address_wr [4:0] $end
$var wire 1 \ clk $end
$var wire 8 _# din [7:0] $end
$var wire 1 y en $end
$var wire 1 t wr $end
$var parameter 32 `# ADDR_WIDTH $end
$var parameter 32 a# DATA_WIDTH $end
$var parameter 32 b# WORDS $end
$var reg 8 c# dout [7:0] $end
$upscope $end
$scope module ram_kw3 $end
$var wire 5 d# address_rd [4:0] $end
$var wire 5 e# address_wr [4:0] $end
$var wire 1 \ clk $end
$var wire 8 f# din [7:0] $end
$var wire 1 x en $end
$var wire 1 s wr $end
$var parameter 32 g# ADDR_WIDTH $end
$var parameter 32 h# DATA_WIDTH $end
$var parameter 32 i# WORDS $end
$var reg 8 j# dout [7:0] $end
$upscope $end
$scope module ram_kw4 $end
$var wire 5 k# address_rd [4:0] $end
$var wire 5 l# address_wr [4:0] $end
$var wire 1 \ clk $end
$var wire 8 m# din [7:0] $end
$var wire 1 w en $end
$var wire 1 r wr $end
$var parameter 32 n# ADDR_WIDTH $end
$var parameter 32 o# DATA_WIDTH $end
$var parameter 32 p# WORDS $end
$var reg 8 q# dout [7:0] $end
$upscope $end
$scope module ram_ofmd1 $end
$var wire 6 r# address_rd [5:0] $end
$var wire 6 s# address_wr [5:0] $end
$var wire 1 \ clk $end
$var wire 16 t# din [15:0] $end
$var wire 1 k en $end
$var wire 1 /" wr $end
$var parameter 32 u# ADDR_WIDTH $end
$var parameter 32 v# DATA_WIDTH $end
$var parameter 32 w# WORDS $end
$var reg 16 x# dout [15:0] $end
$upscope $end
$scope module ram_ofmd2 $end
$var wire 6 y# address_rd [5:0] $end
$var wire 6 z# address_wr [5:0] $end
$var wire 1 \ clk $end
$var wire 16 {# din [15:0] $end
$var wire 1 k en $end
$var wire 1 /" wr $end
$var parameter 32 |# ADDR_WIDTH $end
$var parameter 32 }# DATA_WIDTH $end
$var parameter 32 ~# WORDS $end
$var reg 16 !$ dout [15:0] $end
$upscope $end
$scope module wr_input_addr_cnter $end
$var wire 1 \ clk $end
$var wire 1 #" ifmd_wr_done $end
$var wire 1 "" ifmd_wr_state $end
$var wire 1 "$ in_st $end
$var wire 1 !" is_5x5 $end
$var wire 1 q kw_wr_done $end
$var wire 1 p kw_wr_state $end
$var wire 1 a rst $end
$var parameter 32 #$ COUNT_WIDTH $end
$var parameter 32 $$ IFMD_ADDR_DEPTH $end
$var parameter 32 %$ WORDS_3X3_ADDR_DEPTH $end
$var parameter 32 &$ WORDS_5X5_ADDR_DEPTH $end
$var reg 6 '$ count [5:0] $end
$var reg 1 ($ en_cnt $end
$upscope $end
$upscope $end
$upscope $end
$enddefinitions $end
$comment Show the parameter values. $end
$dumpall
b11001 &$
b1001 %$
b1000000 $$
b110 #$
b100100 ~#
b10000 }#
b110 |#
b100100 w#
b10000 v#
b110 u#
b11001 p#
b1000 o#
b101 n#
b11001 i#
b1000 h#
b101 g#
b11001 b#
b1000 a#
b101 `#
b11001 [#
b1000 Z#
b101 Y#
b1000000 T#
b1000 S#
b110 R#
b1000000 M#
b1000 L#
b110 K#
b110 E#
b110 C#
b10000 B#
b100100 A#
b1000 >#
b10100 =#
b1100 <#
b1000 8#
b10100 7#
b1100 6#
b1000 2#
b10100 1#
b1100 0#
b1000 ,#
b10100 +#
b1100 *#
b110010000 !#
b101000100 ~"
b100 }"
b110 |"
b100 {"
b110 z"
b101 y"
b11 x"
b101 w"
b11 v"
b1000 u"
b1000 t"
b1010 g"
b1000 f"
b110 e"
b100 d"
b10000 c"
b1111 b"
b1110 a"
b1101 `"
b1100 _"
b1011 ^"
b1001 ]"
b111 \"
b101 ["
b11 Z"
b1 Y"
b10 X"
b0 W"
b10001 V"
b10101 S"
b10101 O"
$end
#0
$dumpvars
x($
bx '$
0"$
bx !$
bx {#
bx z#
bx y#
bx x#
bx t#
bx s#
bx r#
bx q#
b0 m#
bx l#
bx k#
bx j#
b0 f#
bx e#
bx d#
bx c#
b0 _#
bx ^#
bx ]#
bx \#
b0 X#
bx W#
bx V#
bx U#
bx Q#
b0 P#
bx O#
bx N#
bx J#
b0 I#
bx H#
bx G#
bx F#
bx D#
bx0xx11 @#
bx ?#
bx ;#
bx :#
bx 9#
bx 5#
bx 4#
bx 3#
bx /#
bx .#
bx -#
bx )#
bx (#
bx '#
x&#
bx %#
bx $#
bx ##
bx "#
b1xx0x0x00 s"
bx0 r"
bx1000 q"
bx1x0xx1 p"
xo"
b1x0 n"
xm"
bx11x1 l"
xk"
b1x0001 j"
bx i"
b0 h"
xU"
b0 T"
bx R"
bx Q"
bx P"
bx N"
bx M"
bx L"
bx K"
bx J"
bx I"
bx H"
bx G"
bx F"
bx E"
bx D"
bx C"
bx B"
bx A"
bx @"
bx ?"
bx >"
bx ="
bx <"
bx ;"
bx :"
bx 9"
bx 8"
bx 7"
bx 6"
bx 5"
bx 4"
bx 3"
bx 2"
x1"
x0"
x/"
x."
bx -"
bx ,"
bx +"
bx *"
x)"
x("
bx '"
x&"
x%"
x$"
x#"
x""
x!"
bx ~
bx }
bx |
bx {
xz
xy
xx
xw
bx v
xu
xt
xs
xr
xq
xp
bx o
bx n
bx m
bx l
xk
bx j
xi
xh
bx g
xf
xe
bx d
b0 c
bx b
0a
0`
0_
0^
b0 ]
0\
bx [
bx Z
xY
bx X
bx W
bx V
bx U
bx T
bx S
bx R
bx Q
bx P
bx O
bx N
bx M
bx L
bx K
bx J
bx I
bx H
bx G
bx F
bx E
bx D
bx C
bx B
bx A
bx @
bx ?
bx >
bx =
bx <
bx ;
bx :
bx 9
bx 8
bx 7
bx 6
bx 5
bx 4
bx 3
bx 2
bx 1
bx 0
bx /
bx .
bx -
bx ,
bx +
bx *
bx )
bx (
bx '
bx &
bx %
bx $
bx #
bx "
bx !
$end
#5
0k
0p
0q
b101000100 s"
0o"
b10 r"
b1000 q"
b110101 p"
b110 n"
b101111 l"
b110001 j"
b100011 @#
b0 t#
b0 {#
0)"
0("
0z
0y
0x
0w
0""
0#"
b0 l#
b0 e#
b0 ^#
b0 W#
b0 o
b0 <"
b0 -#
b0 n
b0 >"
b0 3#
b0 m
b0 @"
b0 9#
b0 l
b0 B"
b0 ?#
b0 3"
b0 N"
b0 2"
b0 R"
0%"
0$"
0u
0t
0s
0r
0e
0U"
0h
b0 i"
0!"
0/"
0f
01"
0."
0Y
0($
b0 d
b0 J#
b0 Q#
b0 '$
b0 +"
b0 )#
b0 5#
b0 N#
b0 *"
b0 /#
b0 ;#
b0 U#
b0 ~
b0 (#
b0 \#
b0 }
b0 .#
b0 c#
b0 |
b0 4#
b0 j#
b0 {
b0 :#
b0 q#
0&"
b0 %#
b0 "#
0m"
b0 v
b0 ##
b0 V#
b0 ]#
b0 d#
b0 k#
0k"
b0 $#
b0 '"
b0 '#
b0 H#
b0 O#
00"
0&#
b0 ;"
b0 ="
b0 D"
b0 :"
b0 ?"
b0 F"
b0 9"
b0 A"
b0 H"
b0 8"
b0 C"
b0 J"
b0 L"
b0 7"
b0 E"
b0 M"
b0 6"
b0 G"
b0 P"
b0 5"
b0 I"
b0 Q"
b0 4"
b0 K"
b0 g
b0 F#
b0 s#
b0 z#
b0 G#
b0 [
b0 -"
b0 x#
b0 Z
b0 ,"
b0 !$
0i
b0 j
b0 D#
b0 r#
b0 y#
1\
#10
0\
1a
#15
1\
#20
1"$
b1 h"
0\
1^
#25
1)"
1""
1%"
b1 i"
1($
1\
#30
0\
#35
b0 !
1\
#40
0"$
0\
b0 b
0^
#45
b1 l#
b1 e#
b1 ^#
b1 W#
b1 d
b1 J#
b1 Q#
b1 '$
b101 !
b101 ]
b101 c
b101 T"
b101 I#
b101 P#
b101 X#
b101 _#
b101 f#
b101 m#
1\
#50
0\
#55
b10 l#
b10 e#
b10 ^#
b10 W#
b11010 "
b10 d
b10 J#
b10 Q#
b10 '$
b11010 ]
b11010 c
b11010 T"
b11010 I#
b11010 P#
b11010 X#
b11010 _#
b11010 f#
b11010 m#
1\
b1 b
#60
0\
#65
b11 l#
b11 e#
b11 ^#
b11 W#
b11 d
b11 J#
b11 Q#
b11 '$
b100110 #
b100110 ]
b100110 c
b100110 T"
b100110 I#
b100110 P#
b100110 X#
b100110 _#
b100110 f#
b100110 m#
1\
b10 b
#70
0\
#75
b100 l#
b100 e#
b100 ^#
b100 W#
b11100 $
b100 d
b100 J#
b100 Q#
b100 '$
b11100 ]
b11100 c
b11100 T"
b11100 I#
b11100 P#
b11100 X#
b11100 _#
b11100 f#
b11100 m#
1\
b11 b
#80
0\
#85
b101 l#
b101 e#
b101 ^#
b101 W#
b101 d
b101 J#
b101 Q#
b101 '$
b11001101 %
b11001101 ]
b11001101 c
b11001101 T"
b11001101 I#
b11001101 P#
b11001101 X#
b11001101 _#
b11001101 f#
b11001101 m#
1\
b100 b
#90
0\
#95
b110 l#
b110 e#
b110 ^#
b110 W#
b1101011 &
b110 d
b110 J#
b110 Q#
b110 '$
b1101011 ]
b1101011 c
b1101011 T"
b1101011 I#
b1101011 P#
b1101011 X#
b1101011 _#
b1101011 f#
b1101011 m#
1\
b101 b
#100
0\
#105
b111 l#
b111 e#
b111 ^#
b111 W#
b111 d
b111 J#
b111 Q#
b111 '$
b111100 ]
b111100 c
b111100 T"
b111100 I#
b111100 P#
b111100 X#
b111100 _#
b111100 f#
b111100 m#
1\
b110 b
#110
0\
#115
b1000 l#
b1000 e#
b1000 ^#
b1000 W#
b1000 d
b1000 J#
b1000 Q#
b1000 '$
b11100110 ]
b11100110 c
b11100110 T"
b11100110 I#
b11100110 P#
b11100110 X#
b11100110 _#
b11100110 f#
b11100110 m#
1\
b111 b
#120
0\
#125
b1001 l#
b1001 e#
b1001 ^#
b1001 W#
b1001 d
b1001 J#
b1001 Q#
b1001 '$
b1101 ]
b1101 c
b1101 T"
b1101 I#
b1101 P#
b1101 X#
b1101 _#
b1101 f#
b1101 m#
1\
b1000 b
#130
0\
#135
b1010 l#
b1010 e#
b1010 ^#
b1010 W#
b1010 d
b1010 J#
b1010 Q#
b1010 '$
b11011 ]
b11011 c
b11011 T"
b11011 I#
b11011 P#
b11011 X#
b11011 _#
b11011 f#
b11011 m#
1\
b1001 b
#140
0\
#145
b1011 l#
b1011 e#
b1011 ^#
b1011 W#
b1011 d
b1011 J#
b1011 Q#
b1011 '$
b1110 ]
b1110 c
b1110 T"
b1110 I#
b1110 P#
b1110 X#
b1110 _#
b1110 f#
b1110 m#
1\
b1010 b
#150
0\
#155
b1100 l#
b1100 e#
b1100 ^#
b1100 W#
b1100 d
b1100 J#
b1100 Q#
b1100 '$
b110111 ]
b110111 c
b110111 T"
b110111 I#
b110111 P#
b110111 X#
b110111 _#
b110111 f#
b110111 m#
1\
b1011 b
#160
0\
#165
b1101 l#
b1101 e#
b1101 ^#
b1101 W#
b1101 d
b1101 J#
b1101 Q#
b1101 '$
b1000111 ]
b1000111 c
b1000111 T"
b1000111 I#
b1000111 P#
b1000111 X#
b1000111 _#
b1000111 f#
b1000111 m#
1\
b1100 b
#170
0\
#175
b1110 l#
b1110 e#
b1110 ^#
b1110 W#
b1110 d
b1110 J#
b1110 Q#
b1110 '$
b11000000 ]
b11000000 c
b11000000 T"
b11000000 I#
b11000000 P#
b11000000 X#
b11000000 _#
b11000000 f#
b11000000 m#
1\
b1101 b
#180
0\
#185
b1111 l#
b1111 e#
b1111 ^#
b1111 W#
b1111 d
b1111 J#
b1111 Q#
b1111 '$
b11110010 ]
b11110010 c
b11110010 T"
b11110010 I#
b11110010 P#
b11110010 X#
b11110010 _#
b11110010 f#
b11110010 m#
1\
b1110 b
#190
0\
#195
b10000 l#
b10000 e#
b10000 ^#
b10000 W#
b10000 d
b10000 J#
b10000 Q#
b10000 '$
b1111001 ]
b1111001 c
b1111001 T"
b1111001 I#
b1111001 P#
b1111001 X#
b1111001 _#
b1111001 f#
b1111001 m#
1\
b1111 b
#200
0\
#205
b10001 l#
b10001 e#
b10001 ^#
b10001 W#
b10001 d
b10001 J#
b10001 Q#
b10001 '$
b1010010 ]
b1010010 c
b1010010 T"
b1010010 I#
b1010010 P#
b1010010 X#
b1010010 _#
b1010010 f#
b1010010 m#
1\
b10000 b
#210
0\
#215
b10010 l#
b10010 e#
b10010 ^#
b10010 W#
b10010 d
b10010 J#
b10010 Q#
b10010 '$
b10010000 ]
b10010000 c
b10010000 T"
b10010000 I#
b10010000 P#
b10010000 X#
b10010000 _#
b10010000 f#
b10010000 m#
1\
b10001 b
#220
0\
#225
b10011 l#
b10011 e#
b10011 ^#
b10011 W#
b10011 d
b10011 J#
b10011 Q#
b10011 '$
b1110110 ]
b1110110 c
b1110110 T"
b1110110 I#
b1110110 P#
b1110110 X#
b1110110 _#
b1110110 f#
b1110110 m#
1\
b10010 b
#230
0\
#235
b10100 l#
b10100 e#
b10100 ^#
b10100 W#
b10100 d
b10100 J#
b10100 Q#
b10100 '$
b10111010 ]
b10111010 c
b10111010 T"
b10111010 I#
b10111010 P#
b10111010 X#
b10111010 _#
b10111010 f#
b10111010 m#
1\
b10011 b
#240
0\
#245
b10101 l#
b10101 e#
b10101 ^#
b10101 W#
b10101 d
b10101 J#
b10101 Q#
b10101 '$
b11101000 ]
b11101000 c
b11101000 T"
b11101000 I#
b11101000 P#
b11101000 X#
b11101000 _#
b11101000 f#
b11101000 m#
1\
b10100 b
#250
0\
#255
b10110 l#
b10110 e#
b10110 ^#
b10110 W#
b10110 d
b10110 J#
b10110 Q#
b10110 '$
b100010 ]
b100010 c
b100010 T"
b100010 I#
b100010 P#
b100010 X#
b100010 _#
b100010 f#
b100010 m#
1\
b10101 b
#260
0\
#265
b10111 l#
b10111 e#
b10111 ^#
b10111 W#
b10111 d
b10111 J#
b10111 Q#
b10111 '$
b11011111 ]
b11011111 c
b11011111 T"
b11011111 I#
b11011111 P#
b11011111 X#
b11011111 _#
b11011111 f#
b11011111 m#
1\
b10110 b
#270
0\
#275
b11000 l#
b11000 e#
b11000 ^#
b11000 W#
b11000 d
b11000 J#
b11000 Q#
b11000 '$
b1000 ]
b1000 c
b1000 T"
b1000 I#
b1000 P#
b1000 X#
b1000 _#
b1000 f#
b1000 m#
1\
b10111 b
#280
0\
#285
b11001 l#
b11001 e#
b11001 ^#
b11001 W#
b11001 d
b11001 J#
b11001 Q#
b11001 '$
b1110001 ]
b1110001 c
b1110001 T"
b1110001 I#
b1110001 P#
b1110001 X#
b1110001 _#
b1110001 f#
b1110001 m#
1\
b11000 b
#290
0\
#295
b11010 l#
b11010 e#
b11010 ^#
b11010 W#
b11010 d
b11010 J#
b11010 Q#
b11010 '$
1\
b11001 b
#300
0\
