bench_wave.vcd
$date
	Tue Jun 24 13:35:37 2025
$end
$version
	Icarus Verilog
$end
$timescale
	1s
$end
$scope module tb_top $end
$var wire 8 ! ram_ifmd1_0 [7:0] $end
$var wire 8 " ram_ifmd1_1 [7:0] $end
$var wire 8 # ram_ifmd1_2 [7:0] $end
$var wire 8 $ ram_ifmd1_3 [7:0] $end
$var wire 8 % ram_ifmd1_4 [7:0] $end
$var wire 8 & ram_ifmd1_5 [7:0] $end
$var wire 8 ' ram_ifmd1_60 [7:0] $end
$var wire 8 ( ram_ifmd1_61 [7:0] $end
$var wire 8 ) ram_ifmd1_62 [7:0] $end
$var wire 8 * ram_ifmd1_63 [7:0] $end
$var wire 8 + ram_ifmd2_0 [7:0] $end
$var wire 8 , ram_ifmd2_1 [7:0] $end
$var wire 8 - ram_ifmd2_2 [7:0] $end
$var wire 8 . ram_ifmd2_3 [7:0] $end
$var wire 8 / ram_ifmd2_4 [7:0] $end
$var wire 8 0 ram_ifmd2_5 [7:0] $end
$var wire 8 1 ram_ifmd2_60 [7:0] $end
$var wire 8 2 ram_ifmd2_61 [7:0] $end
$var wire 8 3 ram_ifmd2_62 [7:0] $end
$var wire 8 4 ram_ifmd2_63 [7:0] $end
$var wire 8 5 ram_kw1_0 [7:0] $end
$var wire 8 6 ram_kw1_1 [7:0] $end
$var wire 8 7 ram_kw1_23 [7:0] $end
$var wire 8 8 ram_kw1_24 [7:0] $end
$var wire 8 9 ram_kw1_7 [7:0] $end
$var wire 8 : ram_kw1_8 [7:0] $end
$var wire 8 ; ram_kw1_9 [7:0] $end
$var wire 8 < ram_kw2_0 [7:0] $end
$var wire 8 = ram_kw2_1 [7:0] $end
$var wire 8 > ram_kw2_23 [7:0] $end
$var wire 8 ? ram_kw2_24 [7:0] $end
$var wire 8 @ ram_kw2_7 [7:0] $end
$var wire 8 A ram_kw2_8 [7:0] $end
$var wire 8 B ram_kw2_9 [7:0] $end
$var wire 8 C ram_kw3_0 [7:0] $end
$var wire 8 D ram_kw3_1 [7:0] $end
$var wire 8 E ram_kw3_23 [7:0] $end
$var wire 8 F ram_kw3_24 [7:0] $end
$var wire 8 G ram_kw3_7 [7:0] $end
$var wire 8 H ram_kw3_8 [7:0] $end
$var wire 8 I ram_kw3_9 [7:0] $end
$var wire 8 J ram_kw4_0 [7:0] $end
$var wire 8 K ram_kw4_1 [7:0] $end
$var wire 8 L ram_kw4_23 [7:0] $end
$var wire 8 M ram_kw4_24 [7:0] $end
$var wire 8 N ram_kw4_7 [7:0] $end
$var wire 8 O ram_kw4_8 [7:0] $end
$var wire 8 P ram_kw4_9 [7:0] $end
$var wire 16 Q ram_ofmd1_0 [15:0] $end
$var wire 16 R ram_ofmd1_1 [15:0] $end
$var wire 16 S ram_ofmd1_14 [15:0] $end
$var wire 16 T ram_ofmd1_15 [15:0] $end
$var wire 16 U ram_ofmd1_16 [15:0] $end
$var wire 16 V ram_ofmd1_2 [15:0] $end
$var wire 16 W ram_ofmd1_34 [15:0] $end
$var wire 16 X ram_ofmd1_35 [15:0] $end
$var wire 1 Y out_st $end
$var wire 16 Z dout_ofmd2 [15:0] $end
$var wire 16 [ dout_ofmd1 [15:0] $end
$var reg 1 \ clk $end
$var reg 8 ] din [7:0] $end
$var reg 1 ^ in_st_ifmd $end
$var reg 1 _ in_st_kw $end
$var reg 1 ` kw_is_5_5 $end
$var reg 1 a rst $end
$var integer 32 b i [31:0] $end
$scope module dut $end
$var wire 1 \ clk $end
$var wire 8 c din [7:0] $end
$var wire 1 ^ in_st_ifmd $end
$var wire 1 _ in_st_kw $end
$var wire 1 ` kw_is_5_5 $end
$var wire 1 a rst $end
$var wire 6 d wr_addr [5:0] $end
$var wire 1 e rd_enable $end
$var wire 1 Y out_st $end
$var wire 1 f ofmd_wr_addr_en $end
$var wire 6 g ofmd_wr_addr [5:0] $end
$var wire 1 h ofmd_rd_en $end
$var wire 1 i ofmd_rd_done $end
$var wire 6 j ofmd_rd_addr [5:0] $end
$var wire 1 k ofmd_ram_en $end
$var wire 20 l mult_out_4 [19:0] $end
$var wire 20 m mult_out_3 [19:0] $end
$var wire 20 n mult_out_2 [19:0] $end
$var wire 20 o mult_out_1 [19:0] $end
$var wire 1 p kw_wr_state $end
$var wire 1 q kw_wr_done $end
$var wire 1 r kw_wr4 $end
$var wire 1 s kw_wr3 $end
$var wire 1 t kw_wr2 $end
$var wire 1 u kw_wr1 $end
$var wire 5 v kw_rd_addr [4:0] $end
$var wire 1 w kw_ram4_en $end
$var wire 1 x kw_ram3_en $end
$var wire 1 y kw_ram2_en $end
$var wire 1 z kw_ram1_en $end
$var wire 8 { kw4_dout [7:0] $end
$var wire 8 | kw3_dout [7:0] $end
$var wire 8 } kw2_dout [7:0] $end
$var wire 8 ~ kw1_dout [7:0] $end
$var wire 1 !" is_5x5 $end
$var wire 1 "" ifmd_wr_state $end
$var wire 1 #" ifmd_wr_done $end
$var wire 1 $" ifmd_wr2 $end
$var wire 1 %" ifmd_wr1 $end
$var wire 1 &" ifmd_rd_done $end
$var wire 6 '" ifmd_rd_addr [5:0] $end
$var wire 1 (" ifmd_ram2_en $end
$var wire 1 )" ifmd_ram1_en $end
$var wire 8 *" ifmd2_dout [7:0] $end
$var wire 8 +" ifmd1_dout [7:0] $end
$var wire 16 ," dout_ofmd2 [15:0] $end
$var wire 16 -" dout_ofmd1 [15:0] $end
$var wire 1 ." delay_calc_ing $end
$var wire 1 /" delay3_calc_ing $end
$var wire 1 0" delay2_every $end
$var wire 1 1" delay2_calc_ing $end
$var wire 21 2" add_data2_21bits [20:0] $end
$var wire 21 3" add_data1_21bits [20:0] $end
$var wire 20 4" accu_we_need_data4 [19:0] $end
$var wire 20 5" accu_we_need_data3 [19:0] $end
$var wire 20 6" accu_we_need_data2 [19:0] $end
$var wire 20 7" accu_we_need_data1 [19:0] $end
$var wire 20 8" acc_out_4 [19:0] $end
$var wire 20 9" acc_out_3 [19:0] $end
$var wire 20 :" acc_out_2 [19:0] $end
$var wire 20 ;" acc_out_1 [19:0] $end
$var parameter 64 <" IFMD_ADDR_DEPTH $end
$var parameter 32 =" IFMD_H $end
$var parameter 32 >" IFMD_W $end
$var parameter 32 ?" INPUT_DATA_WIDTH $end
$var parameter 32 @" KW_H_3 $end
$var parameter 32 A" KW_H_5 $end
$var parameter 32 B" KW_W_3 $end
$var parameter 32 C" KW_W_5 $end
$var parameter 68 D" OFMD_ADDR_DEPTH_3 $end
$var parameter 68 E" OFMD_ADDR_DEPTH_5 $end
$var parameter 34 F" OFMD_H_3 $end
$var parameter 34 G" OFMD_H_5 $end
$var parameter 34 H" OFMD_W_3 $end
$var parameter 34 I" OFMD_W_5 $end
$var parameter 32 J" OUTPUT_DATA_WIDTH $end
$var parameter 64 K" WORDS_3X3_ADDR_DEPTH $end
$var parameter 64 L" WORDS_5X5_ADDR_DEPTH $end
$scope module acc_1 $end
$var wire 1 \ clk $end
$var wire 1 a rst $end
$var wire 1 0" load_new_value $end
$var wire 1 ." en $end
$var wire 20 M" data_in [19:0] $end
$var parameter 32 N" DATA_WIDTH $end
$var reg 20 O" acc_out [19:0] $end
$upscope $end
$scope module acc_2 $end
$var wire 1 \ clk $end
$var wire 1 a rst $end
$var wire 1 0" load_new_value $end
$var wire 1 ." en $end
$var wire 20 P" data_in [19:0] $end
$var parameter 32 Q" DATA_WIDTH $end
$var reg 20 R" acc_out [19:0] $end
$upscope $end
$scope module acc_3 $end
$var wire 1 \ clk $end
$var wire 1 a rst $end
$var wire 1 0" load_new_value $end
$var wire 1 ." en $end
$var wire 20 S" data_in [19:0] $end
$var parameter 32 T" DATA_WIDTH $end
$var reg 20 U" acc_out [19:0] $end
$upscope $end
$scope module acc_4 $end
$var wire 1 \ clk $end
$var wire 1 a rst $end
$var wire 1 0" load_new_value $end
$var wire 1 ." en $end
$var wire 20 V" data_in [19:0] $end
$var parameter 32 W" DATA_WIDTH $end
$var reg 20 X" acc_out [19:0] $end
$upscope $end
$scope module accu_result_reg1 $end
$var wire 20 Y" acc_out [19:0] $end
$var wire 1 \ clk $end
$var wire 1 a rst $end
$var wire 1 0" load_new_value $end
$var parameter 32 Z" DATA_WIDTH $end
$var reg 20 [" data [19:0] $end
$upscope $end
$scope module accu_result_reg2 $end
$var wire 20 \" acc_out [19:0] $end
$var wire 1 \ clk $end
$var wire 1 a rst $end
$var wire 1 0" load_new_value $end
$var parameter 32 ]" DATA_WIDTH $end
$var reg 20 ^" data [19:0] $end
$upscope $end
$scope module accu_result_reg3 $end
$var wire 20 _" acc_out [19:0] $end
$var wire 1 \ clk $end
$var wire 1 a rst $end
$var wire 1 0" load_new_value $end
$var parameter 32 `" DATA_WIDTH $end
$var reg 20 a" data [19:0] $end
$upscope $end
$scope module accu_result_reg4 $end
$var wire 20 b" acc_out [19:0] $end
$var wire 1 \ clk $end
$var wire 1 a rst $end
$var wire 1 0" load_new_value $end
$var parameter 32 c" DATA_WIDTH $end
$var reg 20 d" data [19:0] $end
$upscope $end
$scope module adder_1 $end
$var wire 21 e" a [20:0] $end
$var wire 21 f" b [20:0] $end
$var wire 21 g" out [20:0] $end
$var parameter 32 h" WIDTH $end
$upscope $end
$scope module adder_2 $end
$var wire 21 i" a [20:0] $end
$var wire 21 j" b [20:0] $end
$var wire 21 k" out [20:0] $end
$var parameter 32 l" WIDTH $end
$upscope $end
$scope module fsm $end
$var wire 1 \ clk $end
$var wire 1 )" ifmd_ram1_en $end
$var wire 1 (" ifmd_ram2_en $end
$var wire 1 "" ifmd_wr_state $end
$var wire 1 ^ in_st_ifmd $end
$var wire 1 _ in_st_kw $end
$var wire 1 ` kw_is_5_5 $end
$var wire 1 z kw_ram1_en $end
$var wire 1 y kw_ram2_en $end
$var wire 1 x kw_ram3_en $end
$var wire 1 w kw_ram4_en $end
$var wire 1 p kw_wr_state $end
$var wire 1 k ofmd_ram_en $end
$var wire 1 f ofmd_wr_addr_en $end
$var wire 1 a rst $end
$var wire 1 e rd_enable $end
$var wire 1 h ofmd_rd_en $end
$var wire 1 i ofmd_rd_done $end
$var wire 1 q kw_wr_done $end
$var wire 1 r kw_wr4 $end
$var wire 1 s kw_wr3 $end
$var wire 1 t kw_wr2 $end
$var wire 1 u kw_wr1 $end
$var wire 1 #" ifmd_wr_done $end
$var wire 1 $" ifmd_wr2 $end
$var wire 1 %" ifmd_wr1 $end
$var wire 1 m" calc_ing $end
$var wire 1 &" calc_done $end
$var parameter 32 n" DONE $end
$var parameter 32 o" IDLE $end
$var parameter 32 p" IFMD_WAIT_WR2 $end
$var parameter 32 q" IFMD_WR1 $end
$var parameter 32 r" IFMD_WR2 $end
$var parameter 32 s" KW_WR1 $end
$var parameter 32 t" KW_WR2 $end
$var parameter 32 u" KW_WR3 $end
$var parameter 32 v" KW_WR4 $end
$var parameter 32 w" S_CALC $end
$var parameter 32 x" S_POST_CALC_1 $end
$var parameter 32 y" S_POST_CALC_2 $end
$var parameter 32 z" S_POST_CALC_3 $end
$var parameter 32 {" S_READ_RESULT $end
$var parameter 32 |" WAIT_KW_WR1 $end
$var parameter 32 }" WAIT_KW_WR2 $end
$var parameter 32 ~" WAIT_KW_WR3 $end
$var parameter 32 !# WAIT_KW_WR4 $end
$var reg 1 1" delay2_calc_ing $end
$var reg 1 /" delay3_calc_ing $end
$var reg 1 ." delay_calc_ing $end
$var reg 1 !" is_5x5 $end
$var reg 5 "# next_state [4:0] $end
$var reg 1 Y out_st $end
$var reg 5 ## state [4:0] $end
$upscope $end
$scope module ifmd_rd_addr_gener $end
$var wire 1 \ clk $end
$var wire 1 e enable $end
$var wire 1 !" is_5x5 $end
$var wire 1 a rst $end
$var wire 6 $# pulse_c_offset [5:0] $end
$var wire 1 %# pulse_c $end
$var wire 6 &# pulse_b_offset [5:0] $end
$var wire 1 '# pulse_b $end
$var wire 6 (# pulse_a_offset [5:0] $end
$var wire 1 )# pulse_a $end
$var wire 1 &" ifmd_rd_done $end
$var wire 7 *# cnt_c_max [6:0] $end
$var wire 5 +# cnt_b_max [4:0] $end
$var wire 3 ,# cnt_a_max [2:0] $end
$var wire 9 -# TOTAL_COUNT [8:0] $end
$var parameter 32 .# IFMD_H $end
$var parameter 32 /# IFMD_W $end
$var parameter 32 0# KW_H_3 $end
$var parameter 32 1# KW_H_5 $end
$var parameter 32 2# KW_W_3 $end
$var parameter 32 3# KW_W_5 $end
$var parameter 34 4# OFMD_H_3 $end
$var parameter 34 5# OFMD_H_5 $end
$var parameter 34 6# OFMD_W_3 $end
$var parameter 34 7# OFMD_W_5 $end
$var parameter 132 8# TOTAL_COUNT_3x3 $end
$var parameter 132 9# TOTAL_COUNT_5x5 $end
$var reg 3 :# cnt_a [2:0] $end
$var reg 5 ;# cnt_b [4:0] $end
$var reg 7 <# cnt_c [6:0] $end
$var reg 9 =# count [8:0] $end
$var reg 1 0" delay2_b $end
$var reg 1 ># delay_b $end
$var reg 6 ?# ifmd_rd_addr [5:0] $end
$upscope $end
$scope module multer_1 $end
$var wire 8 @# b [7:0] $end
$var wire 8 A# a [7:0] $end
$var parameter 33 B# EXT_WIDTH $end
$var parameter 32 C# OUT_WIDTH $end
$var parameter 32 D# WIDTH $end
$var reg 20 E# out [19:0] $end
$upscope $end
$scope module multer_2 $end
$var wire 8 F# b [7:0] $end
$var wire 8 G# a [7:0] $end
$var parameter 33 H# EXT_WIDTH $end
$var parameter 32 I# OUT_WIDTH $end
$var parameter 32 J# WIDTH $end
$var reg 20 K# out [19:0] $end
$upscope $end
$scope module multer_3 $end
$var wire 8 L# b [7:0] $end
$var wire 8 M# a [7:0] $end
$var parameter 33 N# EXT_WIDTH $end
$var parameter 32 O# OUT_WIDTH $end
$var parameter 32 P# WIDTH $end
$var reg 20 Q# out [19:0] $end
$upscope $end
$scope module multer_4 $end
$var wire 8 R# b [7:0] $end
$var wire 8 S# a [7:0] $end
$var parameter 33 T# EXT_WIDTH $end
$var parameter 32 U# OUT_WIDTH $end
$var parameter 32 V# WIDTH $end
$var reg 20 W# out [19:0] $end
$upscope $end
$scope module ofmd_rd_addr_cnter $end
$var wire 1 \ clk $end
$var wire 1 h en $end
$var wire 1 !" is_5x5 $end
$var wire 1 a rst $end
$var wire 6 X# max_addr [5:0] $end
$var wire 1 i done_rd $end
$var parameter 68 Y# OFMD1_SIZE $end
$var parameter 68 Z# OFMD2_SIZE $end
$var parameter 32 [# WIDTH $end
$var reg 6 \# addr_cnt [5:0] $end
$upscope $end
$scope module ofmd_wr_addr_cnter $end
$var wire 1 \ clk $end
$var wire 1 0" delay2_every $end
$var wire 1 f en $end
$var wire 1 a rst $end
$var parameter 32 ]# ADDR_WIDTH $end
$var reg 6 ^# addr_cnt [5:0] $end
$var reg 6 _# addr_cnt_prev [5:0] $end
$upscope $end
$scope module ram_ifmd1 $end
$var wire 6 `# address_rd [5:0] $end
$var wire 1 \ clk $end
$var wire 8 a# din [7:0] $end
$var wire 1 )" en $end
$var wire 1 %" wr $end
$var wire 6 b# address_wr [5:0] $end
$var parameter 32 c# ADDR_WIDTH $end
$var parameter 32 d# DATA_WIDTH $end
$var parameter 64 e# WORDS $end
$var reg 8 f# dout [7:0] $end
$upscope $end
$scope module ram_ifmd2 $end
$var wire 6 g# address_rd [5:0] $end
$var wire 1 \ clk $end
$var wire 8 h# din [7:0] $end
$var wire 1 (" en $end
$var wire 1 $" wr $end
$var wire 6 i# address_wr [5:0] $end
$var parameter 32 j# ADDR_WIDTH $end
$var parameter 32 k# DATA_WIDTH $end
$var parameter 64 l# WORDS $end
$var reg 8 m# dout [7:0] $end
$upscope $end
$scope module ram_kw1 $end
$var wire 5 n# address_rd [4:0] $end
$var wire 5 o# address_wr [4:0] $end
$var wire 1 \ clk $end
$var wire 8 p# din [7:0] $end
$var wire 1 z en $end
$var wire 1 u wr $end
$var parameter 32 q# ADDR_WIDTH $end
$var parameter 32 r# DATA_WIDTH $end
$var parameter 64 s# WORDS $end
$var reg 8 t# dout [7:0] $end
$upscope $end
$scope module ram_kw2 $end
$var wire 5 u# address_rd [4:0] $end
$var wire 5 v# address_wr [4:0] $end
$var wire 1 \ clk $end
$var wire 8 w# din [7:0] $end
$var wire 1 y en $end
$var wire 1 t wr $end
$var parameter 32 x# ADDR_WIDTH $end
$var parameter 32 y# DATA_WIDTH $end
$var parameter 64 z# WORDS $end
$var reg 8 {# dout [7:0] $end
$upscope $end
$scope module ram_kw3 $end
$var wire 5 |# address_rd [4:0] $end
$var wire 5 }# address_wr [4:0] $end
$var wire 1 \ clk $end
$var wire 8 ~# din [7:0] $end
$var wire 1 x en $end
$var wire 1 s wr $end
$var parameter 32 !$ ADDR_WIDTH $end
$var parameter 32 "$ DATA_WIDTH $end
$var parameter 64 #$ WORDS $end
$var reg 8 $$ dout [7:0] $end
$upscope $end
$scope module ram_kw4 $end
$var wire 5 %$ address_rd [4:0] $end
$var wire 5 &$ address_wr [4:0] $end
$var wire 1 \ clk $end
$var wire 8 '$ din [7:0] $end
$var wire 1 w en $end
$var wire 1 r wr $end
$var parameter 32 ($ ADDR_WIDTH $end
$var parameter 32 )$ DATA_WIDTH $end
$var parameter 64 *$ WORDS $end
$var reg 8 +$ dout [7:0] $end
$upscope $end
$scope module ram_ofmd1 $end
$var wire 6 ,$ address_rd [5:0] $end
$var wire 6 -$ address_wr [5:0] $end
$var wire 1 \ clk $end
$var wire 16 .$ din [15:0] $end
$var wire 1 k en $end
$var wire 1 /" wr $end
$var parameter 32 /$ ADDR_WIDTH $end
$var parameter 32 0$ DATA_WIDTH $end
$var parameter 68 1$ WORDS $end
$var reg 16 2$ dout [15:0] $end
$upscope $end
$scope module ram_ofmd2 $end
$var wire 6 3$ address_rd [5:0] $end
$var wire 6 4$ address_wr [5:0] $end
$var wire 1 \ clk $end
$var wire 16 5$ din [15:0] $end
$var wire 1 k en $end
$var wire 1 /" wr $end
$var parameter 32 6$ ADDR_WIDTH $end
$var parameter 32 7$ DATA_WIDTH $end
$var parameter 68 8$ WORDS $end
$var reg 16 9$ dout [15:0] $end
$upscope $end
$scope module wr_input_addr_cnter $end
$var wire 1 \ clk $end
$var wire 1 #" ifmd_wr_done $end
$var wire 1 "" ifmd_wr_state $end
$var wire 1 :$ in_st $end
$var wire 1 !" is_5x5 $end
$var wire 1 q kw_wr_done $end
$var wire 1 p kw_wr_state $end
$var wire 1 a rst $end
$var parameter 32 ;$ COUNT_WIDTH $end
$var parameter 64 <$ IFMD_ADDR_DEPTH $end
$var parameter 64 =$ WORDS_3X3_ADDR_DEPTH $end
$var parameter 64 >$ WORDS_5X5_ADDR_DEPTH $end
$var reg 6 ?$ count [5:0] $end
$var reg 1 @$ en_cnt $end
$upscope $end
$upscope $end
$upscope $end
$enddefinitions $end
$comment Show the parameter values. $end
$dumpall
b11001 >$
b1001 =$
b1000000 <$
b110 ;$
b100100 8$
b10000 7$
b110 6$
b100100 1$
b10000 0$
b110 /$
b11001 *$
b1000 )$
b101 ($
b11001 #$
b1000 "$
b101 !$
b11001 z#
b1000 y#
b101 x#
b11001 s#
b1000 r#
b101 q#
b1000000 l#
b1000 k#
b110 j#
b1000000 e#
b1000 d#
b110 c#
b110 ]#
b110 [#
b10000 Z#
b100100 Y#
b1000 V#
b10100 U#
b1100 T#
b1000 P#
b10100 O#
b1100 N#
b1000 J#
b10100 I#
b1100 H#
b1000 D#
b10100 C#
b1100 B#
b110010000 9#
b101000100 8#
b100 7#
b110 6#
b100 5#
b110 4#
b101 3#
b11 2#
b101 1#
b11 0#
b1000 /#
b1000 .#
b1010 !#
b1000 ~"
b110 }"
b100 |"
b10000 {"
b1111 z"
b1110 y"
b1101 x"
b1100 w"
b1011 v"
b1001 u"
b111 t"
b101 s"
b11 r"
b1 q"
b10 p"
b0 o"
b10001 n"
b10101 l"
b10101 h"
b10100 c"
b10100 `"
b10100 ]"
b10100 Z"
b10100 W"
b10100 T"
b10100 Q"
b10100 N"
b11001 L"
b1001 K"
b10000 J"
b100 I"
b110 H"
b100 G"
b110 F"
b10000 E"
b100100 D"
b101 C"
b11 B"
b101 A"
b11 @"
b1000 ?"
b1000 >"
b1000 ="
b1000000 <"
$end
#0
$dumpvars
x@$
bx ?$
0:$
bx 9$
bx 5$
bx 4$
bx 3$
bx 2$
bx .$
bx -$
bx ,$
bx +$
b0 '$
bx &$
bx %$
bx $$
b0 ~#
bx }#
bx |#
bx {#
b0 w#
bx v#
bx u#
bx t#
b0 p#
bx o#
bx n#
bx m#
bx i#
b0 h#
bx g#
bx f#
bx b#
b0 a#
bx `#
bx _#
bx ^#
bx \#
bx0xx11 X#
bx W#
bx S#
bx R#
bx Q#
bx M#
bx L#
bx K#
bx G#
bx F#
bx E#
bx A#
bx @#
bx ?#
x>#
bx =#
bx <#
bx ;#
bx :#
b1xx0x0x00 -#
bx0 ,#
bx1000 +#
bx1x0xx1 *#
x)#
b1x0 (#
x'#
bx11x1 &#
x%#
b1x0001 $#
bx ##
b0 "#
xm"
bx k"
bx j"
bx i"
bx g"
bx f"
bx e"
bx d"
bx b"
bx a"
bx _"
bx ^"
bx \"
bx ["
bx Y"
bx X"
bx V"
bx U"
bx S"
bx R"
bx P"
bx O"
bx M"
bx ;"
bx :"
bx 9"
bx 8"
bx 7"
bx 6"
bx 5"
bx 4"
bx 3"
bx 2"
x1"
x0"
x/"
x."
bx -"
bx ,"
bx +"
bx *"
x)"
x("
bx '"
x&"
x%"
x$"
x#"
x""
x!"
bx ~
bx }
bx |
bx {
xz
xy
xx
xw
bx v
xu
xt
xs
xr
xq
xp
bx o
bx n
bx m
bx l
xk
bx j
xi
xh
bx g
xf
xe
bx d
b0 c
bx b
0a
0`
0_
0^
b0 ]
0\
bx [
bx Z
xY
bx X
bx W
bx V
bx U
bx T
bx S
bx R
bx Q
bx P
bx O
bx N
bx M
bx L
bx K
bx J
bx I
bx H
bx G
bx F
bx E
bx D
bx C
bx B
bx A
bx @
bx ?
bx >
bx =
bx <
bx ;
bx :
bx 9
bx 8
bx 7
bx 6
bx 5
bx 4
bx 3
bx 2
bx 1
bx 0
bx /
bx .
bx -
bx ,
bx +
bx *
bx )
bx (
bx '
bx &
bx %
bx $
bx #
bx "
bx !
$end
#5
0p
0k
0q
b101000100 -#
0)#
b10 ,#
b1000 +#
b110101 *#
b110 (#
b101111 &#
b110001 $#
b100011 X#
b0 .$
b0 5$
0)"
0("
0z
0y
0x
0w
0""
0#"
b0 &$
b0 }#
b0 v#
b0 o#
b0 o
b0 M"
b0 E#
b0 n
b0 P"
b0 K#
b0 m
b0 S"
b0 Q#
b0 l
b0 V"
b0 W#
b0 3"
b0 g"
b0 2"
b0 k"
0%"
0$"
0u
0t
0s
0r
0e
0m"
0h
b0 ##
0!"
0/"
0f
01"
0."
0Y
0@$
b0 d
b0 b#
b0 i#
b0 ?$
b0 +"
b0 A#
b0 M#
b0 f#
b0 *"
b0 G#
b0 S#
b0 m#
b0 ~
b0 @#
b0 t#
b0 }
b0 F#
b0 {#
b0 |
b0 L#
b0 $$
b0 {
b0 R#
b0 +$
0&"
b0 =#
b0 :#
0'#
b0 v
b0 ;#
b0 n#
b0 u#
b0 |#
b0 %$
0%#
b0 <#
b0 '"
b0 ?#
b0 `#
b0 g#
00"
0>#
b0 ;"
b0 O"
b0 Y"
b0 :"
b0 R"
b0 \"
b0 9"
b0 U"
b0 _"
b0 8"
b0 X"
b0 b"
b0 e"
b0 7"
b0 ["
b0 f"
b0 6"
b0 ^"
b0 i"
b0 5"
b0 a"
b0 j"
b0 4"
b0 d"
b0 g
b0 ^#
b0 -$
b0 4$
b0 _#
b0 [
b0 -"
b0 2$
b0 Z
b0 ,"
b0 9$
0i
b0 j
b0 \#
b0 ,$
b0 3$
1\
#10
0\
1a
#15
1\
#20
1:$
b1 "#
0\
1^
#25
1)"
1""
1%"
b1 ##
1@$
1\
#30
0\
#35
b0 !
1\
#40
0:$
0\
b0 b
0^
#45
b1 &$
b1 }#
b1 v#
b1 o#
b1 d
b1 b#
b1 i#
b1 ?$
b101 !
b101 ]
b101 c
b101 a#
b101 h#
b101 p#
b101 w#
b101 ~#
b101 '$
1\
#50
0\
#55
b10 &$
b10 }#
b10 v#
b10 o#
b11010 "
b10 d
b10 b#
b10 i#
b10 ?$
b11010 ]
b11010 c
b11010 a#
b11010 h#
b11010 p#
b11010 w#
b11010 ~#
b11010 '$
1\
b1 b
#60
0\
#65
b11 &$
b11 }#
b11 v#
b11 o#
b11 d
b11 b#
b11 i#
b11 ?$
b100110 #
b100110 ]
b100110 c
b100110 a#
b100110 h#
b100110 p#
b100110 w#
b100110 ~#
b100110 '$
1\
b10 b
#70
0\
#75
b100 &$
b100 }#
b100 v#
b100 o#
b11100 $
b100 d
b100 b#
b100 i#
b100 ?$
b11100 ]
b11100 c
b11100 a#
b11100 h#
b11100 p#
b11100 w#
b11100 ~#
b11100 '$
1\
b11 b
#80
0\
#85
b101 &$
b101 }#
b101 v#
b101 o#
b101 d
b101 b#
b101 i#
b101 ?$
b11001101 %
b11001101 ]
b11001101 c
b11001101 a#
b11001101 h#
b11001101 p#
b11001101 w#
b11001101 ~#
b11001101 '$
1\
b100 b
#90
0\
#95
b110 &$
b110 }#
b110 v#
b110 o#
b1101011 &
b110 d
b110 b#
b110 i#
b110 ?$
b1101011 ]
b1101011 c
b1101011 a#
b1101011 h#
b1101011 p#
b1101011 w#
b1101011 ~#
b1101011 '$
1\
b101 b
#100
0\
#105
b111 &$
b111 }#
b111 v#
b111 o#
b111 d
b111 b#
b111 i#
b111 ?$
b111100 ]
b111100 c
b111100 a#
b111100 h#
b111100 p#
b111100 w#
b111100 ~#
b111100 '$
1\
b110 b
#110
0\
#115
b1000 &$
b1000 }#
b1000 v#
b1000 o#
b1000 d
b1000 b#
b1000 i#
b1000 ?$
b11100110 ]
b11100110 c
b11100110 a#
b11100110 h#
b11100110 p#
b11100110 w#
b11100110 ~#
b11100110 '$
1\
b111 b
#120
0\
#125
b1001 &$
b1001 }#
b1001 v#
b1001 o#
b1001 d
b1001 b#
b1001 i#
b1001 ?$
b1101 ]
b1101 c
b1101 a#
b1101 h#
b1101 p#
b1101 w#
b1101 ~#
b1101 '$
1\
b1000 b
#130
0\
#135
b1010 &$
b1010 }#
b1010 v#
b1010 o#
b1010 d
b1010 b#
b1010 i#
b1010 ?$
b11011 ]
b11011 c
b11011 a#
b11011 h#
b11011 p#
b11011 w#
b11011 ~#
b11011 '$
1\
b1001 b
#140
0\
#145
b1011 &$
b1011 }#
b1011 v#
b1011 o#
b1011 d
b1011 b#
b1011 i#
b1011 ?$
b1110 ]
b1110 c
b1110 a#
b1110 h#
b1110 p#
b1110 w#
b1110 ~#
b1110 '$
1\
b1010 b
#150
0\
#155
b1100 &$
b1100 }#
b1100 v#
b1100 o#
b1100 d
b1100 b#
b1100 i#
b1100 ?$
b110111 ]
b110111 c
b110111 a#
b110111 h#
b110111 p#
b110111 w#
b110111 ~#
b110111 '$
1\
b1011 b
#160
0\
#165
b1101 &$
b1101 }#
b1101 v#
b1101 o#
b1101 d
b1101 b#
b1101 i#
b1101 ?$
b1000111 ]
b1000111 c
b1000111 a#
b1000111 h#
b1000111 p#
b1000111 w#
b1000111 ~#
b1000111 '$
1\
b1100 b
#170
0\
#175
b1110 &$
b1110 }#
b1110 v#
b1110 o#
b1110 d
b1110 b#
b1110 i#
b1110 ?$
b11000000 ]
b11000000 c
b11000000 a#
b11000000 h#
b11000000 p#
b11000000 w#
b11000000 ~#
b11000000 '$
1\
b1101 b
#180
0\
#185
b1111 &$
b1111 }#
b1111 v#
b1111 o#
b1111 d
b1111 b#
b1111 i#
b1111 ?$
b11110010 ]
b11110010 c
b11110010 a#
b11110010 h#
b11110010 p#
b11110010 w#
b11110010 ~#
b11110010 '$
1\
b1110 b
#190
0\
#195
b10000 &$
b10000 }#
b10000 v#
b10000 o#
b10000 d
b10000 b#
b10000 i#
b10000 ?$
b1111001 ]
b1111001 c
b1111001 a#
b1111001 h#
b1111001 p#
b1111001 w#
b1111001 ~#
b1111001 '$
1\
b1111 b
#200
0\
#205
b10001 &$
b10001 }#
b10001 v#
b10001 o#
b10001 d
b10001 b#
b10001 i#
b10001 ?$
b1010010 ]
b1010010 c
b1010010 a#
b1010010 h#
b1010010 p#
b1010010 w#
b1010010 ~#
b1010010 '$
1\
b10000 b
#210
0\
#215
b10010 &$
b10010 }#
b10010 v#
b10010 o#
b10010 d
b10010 b#
b10010 i#
b10010 ?$
b10010000 ]
b10010000 c
b10010000 a#
b10010000 h#
b10010000 p#
b10010000 w#
b10010000 ~#
b10010000 '$
1\
b10001 b
#220
0\
#225
b10011 &$
b10011 }#
b10011 v#
b10011 o#
b10011 d
b10011 b#
b10011 i#
b10011 ?$
b1110110 ]
b1110110 c
b1110110 a#
b1110110 h#
b1110110 p#
b1110110 w#
b1110110 ~#
b1110110 '$
1\
b10010 b
#230
0\
#235
b10100 &$
b10100 }#
b10100 v#
b10100 o#
b10100 d
b10100 b#
b10100 i#
b10100 ?$
b10111010 ]
b10111010 c
b10111010 a#
b10111010 h#
b10111010 p#
b10111010 w#
b10111010 ~#
b10111010 '$
1\
b10011 b
#240
0\
#245
b10101 &$
b10101 }#
b10101 v#
b10101 o#
b10101 d
b10101 b#
b10101 i#
b10101 ?$
b11101000 ]
b11101000 c
b11101000 a#
b11101000 h#
b11101000 p#
b11101000 w#
b11101000 ~#
b11101000 '$
1\
b10100 b
#250
0\
#255
b10110 &$
b10110 }#
b10110 v#
b10110 o#
b10110 d
b10110 b#
b10110 i#
b10110 ?$
b100010 ]
b100010 c
b100010 a#
b100010 h#
b100010 p#
b100010 w#
b100010 ~#
b100010 '$
1\
b10101 b
#260
0\
